<svg viewBox="0 0 100 100" fill="none" xmlns="http://www.w3.org/2000/svg">
    <g  class="logo">
        <g class="diamond">
            <g class="diamondOutline">
                <mask class="path-1-inside-1_5_2" fill="white">
                    <path d="M49.5 6.63796L83.4286 15.0048L97 31.7385L48.8214 97L2 31.7385L15.5714 15.0048L49.5 6.63796Z"/>
                    <path d="M49.5 6.63796L82.8046 15.4044L48.954 96.3257L15.1034 15.4044L49.5 6.63796Z"/>
                </mask>
                <path d="M49.5 6.63796L49.7368 6.19758L49.5 6.07028L49.2632 6.19758L49.5 6.63796ZM95.908 31.5887V32.0887L96.1448 31.1483L95.908 31.5887ZM3.09195 31.5887L2.85519 31.1483L3.09195 32.0887V31.5887ZM49.2632 7.07835L95.6713 32.0291L96.1448 31.1483L49.7368 6.19758L49.2632 7.07835ZM3.32872 32.0291L49.7368 7.07835L49.2632 6.19758L2.85519 31.1483L3.32872 32.0291ZM95.908 31.0887H3.09195V32.0887H95.908V31.0887ZM49.5 6.63796L49.7394 5.66705L49.5 5.608L49.2606 5.66705L49.5 6.63796ZM83.4286 15.0048L84.2052 14.3749L83.9938 14.1143L83.668 14.0339L83.4286 15.0048ZM97 31.7385L97.8045 32.3325L98.2642 31.7098L97.7767 31.1086L97 31.7385ZM48.8214 97L48.0089 97.5829L48.8099 98.6994L49.6259 97.5939L48.8214 97ZM2 31.7385L1.22332 31.1086L0.742598 31.7014L1.18748 32.3215L2 31.7385ZM15.5714 15.0048L15.332 14.0339L15.0062 14.1143L14.7948 14.3749L15.5714 15.0048ZM82.8046 15.4044L83.7271 15.7903L84.1707 14.73L83.0591 14.4374L82.8046 15.4044ZM48.954 96.3257L48.0315 96.7116L48.954 98.9169L49.8766 96.7116L48.954 96.3257ZM15.1034 15.4044L14.8565 14.4354L13.7338 14.7215L14.1809 15.7903L15.1034 15.4044ZM49.2606 7.60888L83.1891 15.9757L83.668 14.0339L49.7394 5.66705L49.2606 7.60888ZM82.6519 15.6347L96.2233 32.3684L97.7767 31.1086L84.2052 14.3749L82.6519 15.6347ZM96.1955 31.1446L48.0169 96.4061L49.6259 97.5939L97.8045 32.3325L96.1955 31.1446ZM49.6339 96.4171L2.81252 31.1556L1.18748 32.3215L48.0089 97.5829L49.6339 96.4171ZM2.77668 32.3684L16.3481 15.6347L14.7948 14.3749L1.22332 31.1086L2.77668 32.3684ZM15.8109 15.9757L49.7394 7.60888L49.2606 5.66705L15.332 14.0339L15.8109 15.9757ZM49.2454 7.60502L82.55 16.3715L83.0591 14.4374L49.7545 5.6709L49.2454 7.60502ZM81.8821 15.0185L48.0315 95.9397L49.8766 96.7116L83.7271 15.7903L81.8821 15.0185ZM49.8766 95.9397L16.026 15.0185L14.1809 15.7903L48.0315 96.7116L49.8766 95.9397ZM15.3504 16.3735L49.747 7.60699L49.253 5.66894L14.8565 14.4354L15.3504 16.3735Z" fill="white" mask="url(#path-1-inside-1_5_2)"/>
            </g>
            <path class="rGold" d="M17.8333 80.8158C29.8448 91.6053 34.977 104.148 33.6667 70.7006C32.0287 28.8913 27.6609 -0.105472 53.8678 3.26625C80.0747 6.63796 45.6782 63.9572 27.1149 50.4703C12.2644 39.6808 72.431 44.4012 73.523 90.9309" stroke="#F6AA1C" stroke-width="3"/>
            <path class="rWhite" d="M17.8333 80.8158C29.8448 91.6053 34.977 104.148 33.6667 70.7006C32.0287 28.8913 27.6609 -0.105472 53.8678 3.26625C80.0747 6.63796 45.6782 63.9572 27.1149 50.4703C12.2644 39.6808 72.431 44.4012 73.523 90.9309" stroke="white"/>
        </g>
    <g class="star">
        <path class="shiningStar" d="M90.2261 33.2692L80.2491 22.5817L66.6755 26.8959L76.9652 17.0481L72.3636 3.1705L82.3406 13.858L95.9142 9.54375L85.6246 19.3915L90.2261 33.2692Z" fill="#FCA311"/>
    </g>
    </g>
</svg>